\relax 
\providecommand\hyper@newdestlabel[2]{}
\citation{umlSpec}
\@writefile{toc}{\contentsline {chapter}{\numberline {3}\uppercase {Implementasi}}{8}{chapter.3}}
\@writefile{lof}{\addvspace {10\p@ }}
\@writefile{lot}{\addvspace {10\p@ }}
\@writefile{toc}{\contentsline {section}{\numberline {3.1}\textit  {Class} XMIModel}{8}{section.3.1}}
\@writefile{toc}{\contentsline {section}{\numberline {3.2}\textit  {Class} XMIPackage}{9}{section.3.2}}
\citation{ifmlBook}
\citation{ifmlBook}
\@writefile{toc}{\contentsline {section}{\numberline {3.3}\textit  {Class} XMIClass}{10}{section.3.3}}
\@writefile{toc}{\contentsline {section}{\numberline {3.4}\textit  {Class} XMIProperty}{10}{section.3.4}}
\citation{umlSpec}
\citation{ifmlBook}
\citation{umlSpec}
\@writefile{toc}{\contentsline {section}{\numberline {3.5}\textit  {Class} XMIOperation}{12}{section.3.5}}
\@writefile{toc}{\contentsline {section}{\numberline {3.6}\textit  {Class} XMIParameter}{12}{section.3.6}}
\citation{umlSpec}
\@writefile{toc}{\contentsline {section}{\numberline {3.7}\textit  {Class} XMIMultiplicity}{13}{section.3.7}}
\citation{umlSpec}
\citation{umlSpec}
\@writefile{toc}{\contentsline {section}{\numberline {3.8}\textit  {Class} XMIAssociation}{14}{section.3.8}}
\@setckpt{bab3}{
\setcounter{page}{16}
\setcounter{equation}{0}
\setcounter{enumi}{6}
\setcounter{enumii}{0}
\setcounter{enumiii}{0}
\setcounter{enumiv}{0}
\setcounter{footnote}{0}
\setcounter{mpfootnote}{0}
\setcounter{part}{0}
\setcounter{chapter}{3}
\setcounter{section}{8}
\setcounter{subsection}{0}
\setcounter{subsubsection}{0}
\setcounter{paragraph}{0}
\setcounter{subparagraph}{0}
\setcounter{figure}{0}
\setcounter{table}{0}
\setcounter{Item}{8}
\setcounter{Hfootnote}{1}
\setcounter{bookmark@seq@number}{16}
\setcounter{ContinuedFloat}{0}
\setcounter{parentequation}{0}
\setcounter{AM@survey}{0}
\setcounter{float@type}{8}
\setcounter{lstnumber}{26}
\setcounter{section@level}{1}
\setcounter{lstlisting}{0}
}
