\relax 
\providecommand\hyper@newdestlabel[2]{}
\@writefile{lof}{\contentsline {figure}{\numberline {1}{\ignorespaces \textit  {Creative Common License 1.0 Generic}\relax }}{ii}{figure.caption.2}}
\providecommand*\caption@xref[2]{\@setref\relax\@undefined{#1}}
\newlabel{fig:lisensi}{{1}{ii}{\license \relax }{figure.caption.2}{}}
\@writefile{lof}{\contentsline {figure}{\numberline {2}{\ignorespaces Dokumen Dibuat dengan PDFLatex\relax }}{iii}{figure.caption.3}}
\newlabel{fig:pdflatex}{{2}{iii}{Dokumen Dibuat dengan PDFLatex\relax }{figure.caption.3}{}}
\@setckpt{pengantar}{
\setcounter{page}{4}
\setcounter{equation}{0}
\setcounter{enumi}{5}
\setcounter{enumii}{0}
\setcounter{enumiii}{0}
\setcounter{enumiv}{0}
\setcounter{footnote}{0}
\setcounter{mpfootnote}{0}
\setcounter{part}{0}
\setcounter{chapter}{0}
\setcounter{section}{0}
\setcounter{subsection}{0}
\setcounter{subsubsection}{0}
\setcounter{paragraph}{0}
\setcounter{subparagraph}{0}
\setcounter{figure}{2}
\setcounter{table}{0}
\setcounter{Item}{5}
\setcounter{Hfootnote}{0}
\setcounter{bookmark@seq@number}{0}
\setcounter{ContinuedFloat}{0}
\setcounter{parentequation}{0}
\setcounter{AM@survey}{0}
\setcounter{float@type}{4}
\setcounter{section@level}{0}
}
